…
``` r
sleep <- readr::read_tsv("sleep.txt",
                         col_names  = c("id", "reaction", "days", "subject"),
                         col_types  = cols(
                           reaction = col_double(),
                           days     = col_integer(),
                           subject  = col_factor()
                           ),
                         skip = 1,
                         ) %>% dplyr::select(reaction, days, subject)
sleep
```

    ## # A tibble: 180 x 3
    ##    reaction  days subject
    ##       <dbl> <int> <fct>  
    ##  1     250.     0 308    
    ##  2     259.     1 308    
    ##  3     251.     2 308    
    ##  4     321.     3 308    
    ##  5     357.     4 308    
    ##  6     415.     5 308    
    ##  7     382.     6 308    
    ##  8     290.     7 308    
    ##  9     431.     8 308    
    ## 10     466.     9 308    
    ## # … with 170 more rows
